<?xml version="1.0" encoding="utf-8"?>
<!-- Generator: Adobe Illustrator 23.0.1, SVG Export Plug-In . SVG Version: 6.00 Build 0)  -->
<svg version="1.1" id="Capa_1" xmlns="http://www.w3.org/2000/svg" xmlns:xlink="http://www.w3.org/1999/xlink" x="0px" y="0px"
	 viewBox="0 0 470 195" style="enable-background:new 0 0 470 195;" xml:space="preserve">
<style type="text/css">
	.st0{fill:none;}
</style>
<title>cuadro</title>
<g>
	<g id="Layer_13">
		<rect class="st0" width="470" height="344"/>
	</g>
</g>
</svg>
